<svg width="103" height="103" viewBox="0 0 103 103" fill="none" xmlns="http://www.w3.org/2000/svg">
<path d="M11.1135 97.7002H1.42121C0.77506 97.7002 0.128906 98.1848 0.128906 98.9925C0.128906 99.8002 0.613522 100.285 1.42121 100.285H11.1135C11.7597 100.285 12.4058 99.8002 12.4058 98.9925C12.4058 98.1848 11.7597 97.7002 11.1135 97.7002Z" fill="white"/>
<path d="M17.5749 97.7002H15.9595C15.3134 97.7002 14.6672 98.1848 14.6672 98.9925C14.6672 99.8002 15.1519 100.285 15.9595 100.285H17.5749C18.2211 100.285 18.8672 99.8002 18.8672 98.9925C18.8672 98.1848 18.2211 97.7002 17.5749 97.7002Z" fill="white"/>
<path d="M101.577 5.62335H99.4769V3.68489C99.4769 3.03873 98.9923 2.39258 98.1846 2.39258C97.3769 2.39258 96.8923 2.87719 96.8923 3.68489V5.78489H94.7923C94.1462 5.78489 93.5 6.2695 93.5 7.07719C93.5 7.88489 93.9846 8.3695 94.7923 8.3695H96.8923V10.4695C96.8923 11.1157 97.3769 11.7618 98.1846 11.7618C98.9923 11.7618 99.4769 11.2772 99.4769 10.4695V8.04642H101.577C102.223 8.04642 102.869 7.56181 102.869 6.75412C102.869 5.94642 102.223 5.62335 101.577 5.62335Z" fill="white"/>
<path d="M7.88137 83.9693H78.9583C83.1583 83.9693 86.7121 80.577 86.7121 76.2154V6.59234C86.7121 6.26926 86.5506 5.94618 86.3891 5.78465L81.0583 0.615415C80.5737 0.130799 79.766 0.130799 79.2814 0.615415L74.9198 4.97695L70.5583 0.615415C70.0737 0.130799 69.266 0.130799 68.7814 0.615415L64.4198 4.97695L60.0583 0.615415C59.5737 0.130799 58.766 0.130799 58.2814 0.615415L53.9198 4.97695L49.5583 0.615415C49.0737 0.130799 48.266 0.130799 47.7814 0.615415L43.4198 4.97695L39.0583 0.615415C38.5737 0.130799 37.766 0.130799 37.2814 0.615415L32.9198 4.97695L28.5583 0.615415C28.0737 0.130799 27.266 0.130799 26.7814 0.615415L22.4198 4.97695L18.0583 0.615415C17.5737 0.130799 16.766 0.130799 16.2814 0.615415L11.9198 4.97695L7.55829 0.615415C7.07368 0.130799 6.26599 0.130799 5.78137 0.615415L0.612139 5.78465C0.289062 6.10772 0.289062 6.26926 0.289062 6.59234V76.2154C0.289062 80.577 3.68137 83.9693 7.88137 83.9693ZM2.71214 7.23849L6.7506 3.20003L11.1121 7.56157C11.5968 8.04618 12.4044 8.04618 12.8891 7.56157L17.2506 3.20003L21.6121 7.56157C22.0968 8.04618 22.9044 8.04618 23.3891 7.56157L27.7506 3.20003L32.1121 7.56157C32.5968 8.04618 33.4044 8.04618 33.8891 7.56157L38.2506 3.20003L42.6121 7.56157C43.0968 8.04618 43.9044 8.04618 44.3891 7.56157L48.7506 3.20003L53.1121 7.56157C53.5968 8.04618 54.4044 8.04618 54.8891 7.56157L59.2506 3.20003L63.6121 7.56157C64.0968 8.04618 64.9044 8.04618 65.3891 7.56157L69.7506 3.20003L74.1121 7.56157C74.5968 8.04618 75.4044 8.04618 75.8891 7.56157L80.2506 3.20003L84.2891 7.23849V76.377C84.2891 79.2846 81.866 81.7077 78.9583 81.7077H7.88137C4.97368 81.7077 2.5506 79.2846 2.5506 76.377V7.23849H2.71214Z" fill="white"/>
<path d="M7.88288 29.0461H78.9598C79.6059 29.0461 80.2521 28.5615 80.2521 27.7538V11.5999C80.2521 10.9538 79.7675 10.3076 78.9598 10.3076H7.88288C7.23673 10.3076 6.59058 10.7922 6.59058 11.5999V27.7538C6.75211 28.5615 7.23673 29.0461 7.88288 29.0461ZM9.17519 12.8922H77.829V26.623H9.17519V12.8922Z" fill="white"/>
<path d="M59.5752 47.623C51.8214 47.623 45.3599 53.923 45.3599 61.8384C45.3599 69.7538 51.6599 76.0538 59.5752 76.0538C67.4906 76.0538 73.7906 69.7538 73.7906 61.8384C73.7906 53.923 67.3291 47.623 59.5752 47.623ZM71.206 60.5461H67.1676C67.006 56.8307 66.0368 53.6 64.7445 51.3384C68.2983 53.1154 70.8829 56.5077 71.206 60.5461ZM58.4445 50.5307V60.7077H54.406C54.5676 55.3769 56.3445 51.6615 58.4445 50.5307ZM58.4445 62.9692V73.1461C56.506 72.0154 54.7291 68.1384 54.406 62.9692H58.4445ZM60.8676 73.1461V62.9692H64.906C64.5829 68.1384 62.806 72.0154 60.8676 73.1461ZM60.8676 60.5461V50.3692C62.806 51.5 64.5829 55.3769 64.906 60.5461H60.8676ZM54.406 51.3384C52.9522 53.6 52.1445 56.8307 51.9829 60.5461H47.9445C48.2676 56.5077 50.8522 53.1154 54.406 51.3384ZM47.9445 62.9692H51.9829C52.1445 66.6846 53.1137 69.9154 54.406 72.1769C50.8522 70.5615 48.2676 67.0077 47.9445 62.9692ZM64.7445 72.3384C66.1983 70.0769 67.006 66.8461 67.1676 63.1307H71.206C70.8829 67.0077 68.2983 70.5615 64.7445 72.3384Z" fill="white"/>
<path d="M7.88288 37.1232H78.9598C79.6059 37.1232 80.2521 36.6386 80.2521 35.8309C80.2521 35.0232 79.7675 34.5386 78.9598 34.5386H7.88288C7.23673 34.5386 6.59058 35.0232 6.59058 35.8309C6.59058 36.6386 7.23673 37.1232 7.88288 37.1232Z" fill="white"/>
<path d="M7.88288 43.5846H78.9598C79.6059 43.5846 80.2521 43.1 80.2521 42.2923C80.2521 41.4846 79.7675 41 78.9598 41H7.88288C7.23673 41 6.59058 41.4846 6.59058 42.2923C6.59058 43.1 7.23673 43.5846 7.88288 43.5846Z" fill="white"/>
<path d="M7.88288 50.046H40.1906C40.8367 50.046 41.4829 49.5614 41.4829 48.7537C41.4829 47.946 40.9983 47.4614 40.1906 47.4614H7.88288C7.23673 47.4614 6.59058 47.946 6.59058 48.7537C6.59058 49.5614 7.23673 50.046 7.88288 50.046Z" fill="white"/>
<path d="M7.88288 56.5079H40.1906C40.8367 56.5079 41.4829 56.0233 41.4829 55.2156C41.4829 54.408 40.9983 53.9233 40.1906 53.9233H7.88288C7.23673 53.9233 6.59058 54.408 6.59058 55.2156C6.59058 56.0233 7.23673 56.5079 7.88288 56.5079Z" fill="white"/>
<path d="M7.88288 62.9694H40.1906C40.8367 62.9694 41.4829 62.4848 41.4829 61.6771C41.4829 60.8694 40.9983 60.3848 40.1906 60.3848H7.88288C7.23673 60.3848 6.59058 60.8694 6.59058 61.6771C6.59058 62.4848 7.23673 62.9694 7.88288 62.9694Z" fill="white"/>
<path d="M7.88288 69.4308H40.1906C40.8367 69.4308 41.4829 68.9462 41.4829 68.1385C41.4829 67.3308 40.9983 66.8462 40.1906 66.8462H7.88288C7.23673 66.8462 6.59058 67.3308 6.59058 68.1385C6.59058 68.9462 7.23673 69.4308 7.88288 69.4308Z" fill="white"/>
<path d="M7.88288 75.8922H40.1906C40.8367 75.8922 41.4829 75.4076 41.4829 74.5999C41.4829 73.7922 40.9983 73.3076 40.1906 73.3076H7.88288C7.23673 73.3076 6.59058 73.7922 6.59058 74.5999C6.59058 75.4076 7.23673 75.8922 7.88288 75.8922Z" fill="white"/>
<path d="M93.0138 40.1924C92.8523 39.5463 92.2061 39.0617 91.56 39.2232C90.9138 39.3847 90.4292 40.0309 90.5908 40.677L99.6369 83.1617C99.7984 83.6463 99.6369 84.2924 99.3138 84.6155C98.9907 85.1001 98.5061 85.4232 98.0215 85.4232L28.56 100.123C27.4292 100.285 26.46 99.6386 26.1369 98.5078L24.0369 88.8155C23.8754 88.1694 23.2292 87.6847 22.5831 87.8463C21.9369 88.0078 21.4523 88.654 21.6138 89.3001L23.7138 98.9924C24.1984 101.092 25.9754 102.546 28.0754 102.546C28.3984 102.546 28.7215 102.546 29.0446 102.385L98.5061 87.6847C99.6369 87.3617 100.606 86.7155 101.252 85.7463C101.898 84.7771 102.06 83.4847 101.898 82.354L93.0138 40.1924Z" fill="white"/>
</svg>
