<svg width="82" height="550" viewBox="0 0 82 550" fill="none" xmlns="http://www.w3.org/2000/svg">
<line x1="74.75" y1="5.25" x2="8.83334" y2="5.25" stroke="white" stroke-width="10.5" stroke-linecap="round"/>
<path d="M74.8633 5.40918V51.0227C74.8633 62.2969 65.7237 71.4365 54.4494 71.4365V71.4365C43.1752 71.4365 34.0356 62.2969 34.0356 51.0227V6.9098V5.40918" stroke="white" stroke-width="10.5" stroke-linecap="round" stroke-linejoin="round"/>
<line x1="74.167" y1="477.862" x2="8.25033" y2="477.862" stroke="white" stroke-width="10.5" stroke-linecap="round"/>
<path d="M74.2803 478.021V523.635C74.2803 534.909 65.1407 544.048 53.8664 544.048V544.048C42.5922 544.048 33.4526 534.909 33.4526 523.635V479.522V478.021" stroke="white" stroke-width="10.5" stroke-linecap="round" stroke-linejoin="round"/>
<path d="M57.9511 276.302H59.5833C68.9262 276.302 76.5 268.728 76.5 259.385V216.687C76.5 207.344 68.9261 199.77 59.5833 199.77H23.8584C14.5156 199.77 6.94174 207.344 6.94174 216.687V260.886C6.94174 270.228 14.5156 277.802 23.8584 277.802H37.1845" stroke="white" stroke-width="10.5" stroke-linecap="round" stroke-linejoin="round"/>
<path d="M37.1846 277.802V235.784" stroke="white" stroke-width="10.5" stroke-linecap="round" stroke-linejoin="round"/>
<path d="M8.83334 88.3533L74.75 135.603L8.83334 182.853" stroke="white" stroke-width="10.5" stroke-linecap="round" stroke-linejoin="round"/>
<path d="M30.417 104.687L30.417 137.353" stroke="white" stroke-width="10.5" stroke-linecap="round" stroke-linejoin="round"/>
<path d="M76.5 357.745V294.719H41.7209M6.94175 357.745V294.719H41.7209M41.7209 294.719L41.7209 354.744" stroke="white" stroke-width="10.5" stroke-linecap="round" stroke-linejoin="round"/>
<path d="M76.5 374.662H28.1796C15.6151 374.662 5.42961 384.847 5.42961 397.412V432.945C5.42961 445.51 15.6151 455.695 28.1796 455.695H76.5" stroke="white" stroke-width="10.5" stroke-linecap="round" stroke-linejoin="round"/>
</svg>
